5 Tidying | Visualization, transformation and reporting with the tidyverse
…
table1

## # A tibble: 6 x 4
##   country      year  cases population
##   <chr>       <int>  <int>      <int>
## 1 Afghanistan  1999    745   19987071
## 2 Afghanistan  2000   2666   20595360
## 3 Brazil       1999  37737  172006362
## 4 Brazil       2000  80488  174504898
## 5 China        1999 212258 1272915272
## 6 China        2000 213766 1280428583

table2

## # A tibble: 12 x 4
##   country      year type          count
##   <chr>       <int> <chr>         <int>
## 1 Afghanistan  1999 cases           745
## 2 Afghanistan  1999 population 19987071
## 3 Afghanistan  2000 cases          2666
## # … with 9 more rows
…
## # A tibble: 6 x 4
##   country      year  cases population
##   <chr>       <int>  <int>      <int>
## 1 Afghanistan  1999    745   19987071
## 2 Afghanistan  2000   2666   20595360
## 3 Brazil       1999  37737  172006362
## 4 Brazil       2000  80488  174504898
## 5 China        1999 212258 1272915272
## 6 China        2000 213766 1280428583

table1 %>%
  pivot_longer(-c(country, year))

## # A tibble: 12 x 4
##   country      year name          value
##   <chr>       <int> <chr>         <int>
## 1 Afghanistan  1999 cases           745
## 2 Afghanistan  1999 population 19987071
## 3 Afghanistan  2000 cases          2666
## # … with 9 more rows
…
## Error in .f(.x[[i]], ...) : object '.....' not found

table1 %>%
  pivot_longer(
    -c(country, year),
    names_to = "type",
    values_to = "count"
  )

## # A tibble: 12 x 4
##   country      year type          count
##   <chr>       <int> <chr>         <int>
## 1 Afghanistan  1999 cases           745
## 2 Afghanistan  1999 population 19987071
## 3 Afghanistan  2000 cases          2666
## # … with 9 more rows

5.1.2 Convert to wider form

The pivot_wider() form does the inverse: it creates a dataset with fewer rows.
If the name and value columns are named differently, these columns can be provided via the names_from and values_from arguments.

table2

## # A tibble: 12 x 4
##   country      year type          count
##   <chr>       <int> <chr>         <int>
## 1 Afghanistan  1999 cases           745
## 2 Afghanistan  1999 population 19987071
## 3 Afghanistan  2000 cases          2666
## # … with 9 more rows
…
anscombe %>%
  as_tibble()

## # A tibble: 11 x 8
##      x1    x2    x3    x4    y1    y2    y3    y4
##   <dbl> <dbl> <dbl> <dbl> <dbl> <dbl> <dbl> <dbl>
## 1    10    10    10     8  8.04  9.14  7.46  6.58
## 2     8     8     8     8  6.95  8.14  6.77  5.76
## 3    13    13    13     8  7.58  8.74 12.7   7.71
## # … with 8 more rows
…
5.1.7 WHO data

The following example shows a case that violates the first two rules of tidy data: WHO data arranged for optimal use of screen space.
The column names define, in addition to the measurement type new_sp, new_sn, new_ep and newrel, the age and sex stratum of the corresponding measurements.
One single pivot_longer() call transforms the data into a longer-form version with four measurement columns and one row for each age/sex stratum.
The names_pattern is a regular expression that defines what part of the column name is stored where.
(Regular expressions are a powerful tool for parsing text data, out of scope for this lecture but very much worth looking into.)
The names_to sequence defines, for each () group in names_pattern, if the data encoded in the column name is stored in a new column or if it is kept as column name.

who %>%
  view()

## # A tibble: 7,240 x 60
##   country iso2  iso3   year new_sp_m014 new_sp_m1524
##   <chr>   <chr> <chr> <int>       <int>        <int>
## 1 Afghan… AF    AFG    1980          NA           NA
## 2 Afghan… AF    AFG    1981          NA           NA
## 3 Afghan… AF    AFG    1982          NA           NA
## # … with 7,237 more rows, and 54 more variables:
## #   new_sp_m2534 <int>, new_sp_m3544 <int>,
## #   new_sp_m4554 <int>, new_sp_m5564 <int>, new_sp_m65 <int>,
## #   new_sp_f014 <int>, new_sp_f1524 <int>,
## #   new_sp_f2534 <int>, new_sp_f3544 <int>,
## #   new_sp_f4554 <int>, new_sp_f5564 <int>, new_sp_f65 <int>,
## #   new_sn_m014 <int>, new_sn_m1524 <int>,
## #   new_sn_m2534 <int>, new_sn_m3544 <int>,
## #   new_sn_m4554 <int>, new_sn_m5564 <int>, new_sn_m65 <int>,
…
who_longer

## # A tibble: 101,360 x 10
##   country iso2  iso3   year sex   age   new_sp new_sn new_ep
##   <chr>   <chr> <chr> <int> <chr> <chr>  <int>  <int>  <int>
## 1 Afghan… AF    AFG    1980 m     014       NA     NA     NA
## 2 Afghan… AF    AFG    1980 m     1524      NA     NA     NA
## 3 Afghan… AF    AFG    1980 m     2534      NA     NA     NA
## # … with 1.014e+05 more rows, and 1 more variable:
## #   newrel <int>

who_longer %>%
  count(sex, age)

## # A tibble: 14 x 3
##   sex   age       n
##   <chr> <chr> <int>
## 1 f     014    7240
## 2 f     1524   7240
## 3 f     2534   7240
## # … with 11 more rows
…
