3 Transformation | Visualization, transformation and reporting with the tidyverse
…
?flights

The function dplyr::filter() helps you to reduce your dataset to the observations (rows) of interest.
The filter condition can use any of the dataset’s variables and needs to be a logical expression.

flights %>%
  filter(dep_time < 600)

## # A tibble: 8,730 x 19
##    year month   day dep_time sched_dep_time dep_delay arr_time
##   <int> <int> <int>    <int>          <int>     <dbl>    <int>
## 1  2013     1     1      517            515         2      830
## 2  2013     1     1      533            529         4      850
## 3  2013     1     1      542            540         2      923
## # … with 8,727 more rows, and 12 more variables:
## #   sched_arr_time <int>, arr_delay <dbl>, carrier <chr>,
## #   flight <int>, tailnum <chr>, origin <chr>, dest <chr>,
## #   air_time <dbl>, distance <dbl>, hour <dbl>, minute <dbl>,
## #   time_hour <dttm>
…
near(sin(pi), 0)

between(), %in%

between(hour, 8, 12)
month %in% c(12, 1, 2)

str_detect() for strings

Missing values can be detected with is.na():

flights %>%
  filter(is.na(dep_time))

## # A tibble: 8,255 x 19
##    year month   day dep_time sched_dep_time dep_delay arr_time
##   <int> <int> <int>    <int>          <int>     <dbl>    <int>
## 1  2013     1     1       NA           1630        NA       NA
## 2  2013     1     1       NA           1935        NA       NA
## 3  2013     1     1       NA           1500        NA       NA
## # … with 8,252 more rows, and 12 more variables:
## #   sched_arr_time <int>, arr_delay <dbl>, carrier <chr>,
## #   flight <int>, tailnum <chr>, origin <chr>, dest <chr>,
## #   air_time <dbl>, distance <dbl>, hour <dbl>, minute <dbl>,
## #   time_hour <dttm>

flights %>%
  filter(is.na(dep_time - arr_time))

## # A tibble: 8,713 x 19
##    year month   day dep_time sched_dep_time dep_delay arr_time
##   <int> <int> <int>    <int>          <int>     <dbl>    <int>
## 1  2013     1     1     2016           1930        46       NA
## 2  2013     1     1       NA           1630        NA       NA
## 3  2013     1     1       NA           1935        NA       NA
## # … with 8,710 more rows, and 12 more variables:
## #   sched_arr_time <int>, arr_delay <dbl>, carrier <chr>,
## #   flight <int>, tailnum <chr>, origin <chr>, dest <chr>,
## #   air_time <dbl>, distance <dbl>, hour <dbl>, minute <dbl>,
## #   time_hour <dttm>
…
You can combine filter() and arrange().

flights %>%
  filter(dep_time < 600) %>%
  filter(month >= 10) %>%
  arrange(dep_time, dep_delay) %>%
  view()

## # A tibble: 1,894 x 19
##    year month   day dep_time sched_dep_time dep_delay arr_time
##   <int> <int> <int>    <int>          <int>     <dbl>    <int>
## 1  2013    11    13        1           2359         2      442
## 2  2013    12    16        1           2359         2      447
## 3  2013    12    20        1           2359         2      430
## # … with 1,891 more rows, and 12 more variables:
## #   sched_arr_time <int>, arr_delay <dbl>, carrier <chr>,
## #   flight <int>, tailnum <chr>, origin <chr>, dest <chr>,
## #   air_time <dbl>, distance <dbl>, hour <dbl>, minute <dbl>,
## #   time_hour <dttm>

You can use arrange() with arbitrary expressions.

flights %>%
  filter(month == 4) %>%
  filter(day == 1) %>%
  arrange(is.na(dep_time)) %>%
  view()

## # A tibble: 970 x 19
##    year month   day dep_time sched_dep_time dep_delay arr_time
##   <int> <int> <int>    <int>          <int>     <dbl>    <int>
## 1  2013     4     1      454            500        -6      636
## 2  2013     4     1      509            515        -6      743
## 3  2013     4     1      526            530        -4      812
## # … with 967 more rows, and 12 more variables:
## #   sched_arr_time <int>, arr_delay <dbl>, carrier <chr>,
## #   flight <int>, tailnum <chr>, origin <chr>, dest <chr>,
## #   air_time <dbl>, distance <dbl>, hour <dbl>, minute <dbl>,
## #   time_hour <dttm>

The reason for the result you just saw in the view of the filtered dataset is, that the binary result of the expression (TRUE, FALSE) is sorted FALSE first (lexicographically).

Let’s give it a twist:

flights %>%
  filter(month == 4) %>%
  filter(day == 1) %>%
  arrange(!is.na(dep_time)) %>%
  view()

## # A tibble: 970 x 19
##    year month   day dep_time sched_dep_time dep_delay arr_time
##   <int> <int> <int>    <int>          <int>     <dbl>    <int>
## 1  2013     4     1       NA           1125        NA       NA
## 2  2013     4     1       NA           1545        NA       NA
## 3  2013     4     1       NA            850        NA       NA
## # … with 967 more rows, and 12 more variables:
## #   sched_arr_time <int>, arr_delay <dbl>, carrier <chr>,
## #   flight <int>, tailnum <chr>, origin <chr>, dest <chr>,
## #   air_time <dbl>, distance <dbl>, hour <dbl>, minute <dbl>,
## #   time_hour <dttm>

Sorting the dataset according to which flights arrived earliest on April 1, 2013:

flights %>%
  filter(month == 4) %>%
  filter(day == 1) %>%
  arrange(arr_time) %>%
  view()

## # A tibble: 970 x 19
##    year month   day dep_time sched_dep_time dep_delay arr_time
##   <int> <int> <int>    <int>          <int>     <dbl>    <int>
## 1  2013     4     1     2243           2245        -2        6
## 2  2013     4     1     2056           1925        91        8
## 3  2013     4     1     2216           2100        76        9
## # … with 967 more rows, and 12 more variables:
## #   sched_arr_time <int>, arr_delay <dbl>, carrier <chr>,
## #   flight <int>, tailnum <chr>, origin <chr>, dest <chr>,
## #   air_time <dbl>, distance <dbl>, hour <dbl>, minute <dbl>,
## #   time_hour <dttm>

Invert the sorting by either…

flights %>%
  filter(month == 4) %>%
  filter(day == 1) %>%
  arrange(-arr_time) %>%
  view()

## # A tibble: 970 x 19
##    year month   day dep_time sched_dep_time dep_delay arr_time
##   <int> <int> <int>    <int>          <int>     <dbl>    <int>
## 1  2013     4     1     2027           2032        -5     2358
## 2  2013     4     1     2151           1930       141     2358
## 3  2013     4     1     2252           2245         7     2358
## # … with 967 more rows, and 12 more variables:
## #   sched_arr_time <int>, arr_delay <dbl>, carrier <chr>,
## #   flight <int>, tailnum <chr>, origin <chr>, dest <chr>,
## #   air_time <dbl>, distance <dbl>, hour <dbl>, minute <dbl>,
## #   time_hour <dttm>

… or:

flights %>%
  filter(month == 4) %>%
  filter(day == 1) %>%
  arrange(desc(arr_time)) %>%
  view()

## # A tibble: 970 x 19
##    year month   day dep_time sched_dep_time dep_delay arr_time
##   <int> <int> <int>    <int>          <int>     <dbl>    <int>
## 1  2013     4     1     2027           2032        -5     2358
## 2  2013     4     1     2151           1930       141     2358
## 3  2013     4     1     2252           2245         7     2358
## # … with 967 more rows, and 12 more variables:
## #   sched_arr_time <int>, arr_delay <dbl>, carrier <chr>,
## #   flight <int>, tailnum <chr>, origin <chr>, dest <chr>,
## #   air_time <dbl>, distance <dbl>, hour <dbl>, minute <dbl>,
## #   time_hour <dttm>

You can mix sorting in an ascending and a descending manner:

flights %>%
  filter(month == 4) %>%
  filter(day == 1) %>%
  arrange(dep_time, desc(arr_time)) %>%
  view()

## # A tibble: 970 x 19
##    year month   day dep_time sched_dep_time dep_delay arr_time
##   <int> <int> <int>    <int>          <int>     <dbl>    <int>
## 1  2013     4     1      454            500        -6      636
## 2  2013     4     1      509            515        -6      743
## 3  2013     4     1      526            530        -4      812
## # … with 967 more rows, and 12 more variables:
## #   sched_arr_time <int>, arr_delay <dbl>, carrier <chr>,
## #   flight <int>, tailnum <chr>, origin <chr>, dest <chr>,
## #   air_time <dbl>, distance <dbl>, hour <dbl>, minute <dbl>,
## #   time_hour <dttm>
…
from October till December,

ordered by departure time and then departure delay

and displays it.

Note how the reading corresponds to the code.

flights %>%
  filter(dep_time < 600) %>%
  filter(month >= 10) %>%
  arrange(dep_time, dep_delay) %>%
  view()

## # A tibble: 1,894 x 19
##    year month   day dep_time sched_dep_time dep_delay arr_time
##   <int> <int> <int>    <int>          <int>     <dbl>    <int>
## 1  2013    11    13        1           2359         2      442
## 2  2013    12    16        1           2359         2      447
## 3  2013    12    20        1           2359         2      430
## # … with 1,891 more rows, and 12 more variables:
## #   sched_arr_time <int>, arr_delay <dbl>, carrier <chr>,
## #   flight <int>, tailnum <chr>, origin <chr>, dest <chr>,
## #   air_time <dbl>, distance <dbl>, hour <dbl>, minute <dbl>,
## #   time_hour <dttm>

This is possible, because all transformation verbs (filter(), arrange(), view()) accept the main input (a tibble) as the first argument and also return a tibble.

The following three codes are equivalent, but are more difficult to write, to read and to maintain.

Naming is hard.
Trying to give each intermediate result a name is exhausting.
Introducing an additional step in this sequence of operations is prone to errors.

early_flights <- filter(flights, dep_time < 600)
early_flights_oct_dec <- filter(early_flights, month >= 10)
early_flights_oct_dec_sorted <- arrange(early_flights_oct_dec, dep_time, dep_delay)
view(early_flights_oct_dec_sorted)

## # A tibble: 1,894 x 19
##    year month   day dep_time sched_dep_time dep_delay arr_time
##   <int> <int> <int>    <int>          <int>     <dbl>    <int>
## 1  2013    11    13        1           2359         2      442
## 2  2013    12    16        1           2359         2      447
## 3  2013    12    20        1           2359         2      430
## # … with 1,891 more rows, and 12 more variables:
## #   sched_arr_time <int>, arr_delay <dbl>, carrier <chr>,
## #   flight <int>, tailnum <chr>, origin <chr>, dest <chr>,
## #   air_time <dbl>, distance <dbl>, hour <dbl>, minute <dbl>,
## #   time_hour <dttm>

We can keep using the same variable, e.g. x, to avoid naming.
This adds noise compared to the pipe.

x <- flights
x <- filter(x, dep_time < 600)
x <- filter(x, month >= 10)
x <- arrange(x, dep_time, dep_delay)
view(x)

## # A tibble: 1,894 x 19
##    year month   day dep_time sched_dep_time dep_delay arr_time
##   <int> <int> <int>    <int>          <int>     <dbl>    <int>
## 1  2013    11    13        1           2359         2      442
## 2  2013    12    16        1           2359         2      447
## 3  2013    12    20        1           2359         2      430
## # … with 1,891 more rows, and 12 more variables:
## #   sched_arr_time <int>, arr_delay <dbl>, carrier <chr>,
## #   flight <int>, tailnum <chr>, origin <chr>, dest <chr>,
## #   air_time <dbl>, distance <dbl>, hour <dbl>, minute <dbl>,
## #   time_hour <dttm>
…
view(
  arrange(
    filter(
      filter(
        flights,
        dep_time < 600
      ),
      month >= 10
    ),
    dep_time, dep_delay
  )
)

## # A tibble: 1,894 x 19
##    year month   day dep_time sched_dep_time dep_delay arr_time
##   <int> <int> <int>    <int>          <int>     <dbl>    <int>
## 1  2013    11    13        1           2359         2      442
## 2  2013    12    16        1           2359         2      447
## 3  2013    12    20        1           2359         2      430
## # … with 1,891 more rows, and 12 more variables:
## #   sched_arr_time <int>, arr_delay <dbl>, carrier <chr>,
## #   flight <int>, tailnum <chr>, origin <chr>, dest <chr>,
## #   air_time <dbl>, distance <dbl>, hour <dbl>, minute <dbl>,
## #   time_hour <dttm>

3.4.1 Further advantages

When working on a code chunk consisting of subsequent transformations connected by pipes, it can be useful to end the pipeline with either I or view().

flights %>%
  filter(dep_time < 600) %>%
  filter(month >= 10) %>% I

## # A tibble: 1,894 x 19
##    year month   day dep_time sched_dep_time dep_delay arr_time
## * <int> <int> <int>    <int>          <int>     <dbl>    <int>
## 1  2013    10     1      447            500       -13      614
## 2  2013    10     1      522            517         5      735
## 3  2013    10     1      536            545        -9      809
## # … with 1,891 more rows, and 12 more variables:
## #   sched_arr_time <int>, arr_delay <dbl>, carrier <chr>,
## #   flight <int>, tailnum <chr>, origin <chr>, dest <chr>,
## #   air_time <dbl>, distance <dbl>, hour <dbl>, minute <dbl>,
## #   time_hour <dttm>
…
Let’s look at a single airplane:

flights %>%
  filter(tailnum == "N14228") %>%
  select(year, month, day, dep_time, arr_time) %>%
  view()

## # A tibble: 111 x 5
##    year month   day dep_time arr_time
##   <int> <int> <int>    <int>    <int>
## 1  2013     1     1      517      830
## 2  2013     1     8     1435     1717
## 3  2013     1     9      717      812
## # … with 108 more rows

Adding the departure time of the next flight to the current row, respectively, using mutate() with lead():

flights %>%
  filter(tailnum == "N14228") %>%
  select(year, month, day, dep_time, arr_time) %>%
  mutate(lead_dep_time = lead(dep_time)) %>%
  view()

## # A tibble: 111 x 6
##    year month   day dep_time arr_time lead_dep_time
##   <int> <int> <int>    <int>    <int>         <int>
## 1  2013     1     1      517      830          1435
## 2  2013     1     8     1435     1717           717
## 3  2013     1     9      717      812          1143
## # … with 108 more rows

The opposite effect to lead() can be realized using lag():

flights %>%
  filter(tailnum == "N14228") %>%
  select(year, month, day, dep_time, arr_time) %>%
  mutate(lag_arr_time = lag(arr_time)) %>%
  view()

## # A tibble: 111 x 6
##    year month   day dep_time arr_time lag_arr_time
##   <int> <int> <int>    <int>    <int>        <int>
## 1  2013     1     1      517      830           NA
## 2  2013     1     8     1435     1717          830
## 3  2013     1     9      717      812         1717
## # … with 108 more rows

There is even a use-case for this in our little example.
How long does it take for the airplane to return to NYC with each flight out?

flights %>%
  filter(tailnum == "N14228") %>%
  select(year, month, day, time_hour) %>%
  mutate(lag_time_hour = lag(time_hour)) %>%
  mutate(ground_time = time_hour - lag_time_hour) %>%
  view()

## # A tibble: 111 x 6
##    year month   day time_hour           lag_time_hour      
##   <int> <int> <int> <dttm>              <dttm>             
## 1  2013     1     1 2013-01-01 05:00:00 NA                 
## 2  2013     1     8 2013-01-08 14:00:00 2013-01-01 05:00:00
## 3  2013     1     9 2013-01-09 07:00:00 2013-01-08 14:00:00
## # … with 108 more rows, and 1 more variable:
## #   ground_time <drtn>

A frequently used workflow is creating a helper variable at some point in the pipeline and then dropping it later on:

flights %>%
  filter(tailnum == "N14228") %>%
  select(year, month, day, dep_time, arr_time) %>%
  mutate(lag_arr_time = lag(arr_time)) %>%
  mutate(ground_time = dep_time - lag_arr_time) %>%
  select(-lag_arr_time)

## # A tibble: 111 x 6
##    year month   day dep_time arr_time ground_time
##   <int> <int> <int>    <int>    <int>       <int>
## 1  2013     1     1      517      830          NA
## 2  2013     1     8     1435     1717         605
## 3  2013     1     9      717      812       -1000
## # … with 108 more rows

Let’s work some more with the flight data of our special plane.
The total air time of a plane up to and including a given flight can be calculated with cumsum():

flights %>%
  filter(tailnum == "N14228") %>%
  mutate(cum_air_time = cumsum(air_time)) %>%
  select(air_time, cum_air_time) %>%
  view()

## # A tibble: 111 x 2
##   air_time cum_air_time
##      <dbl>        <dbl>
## 1      227          227
## 2      150          377
## 3       39          416
## # … with 108 more rows
…
Groups can be defined over multiple columns as well.
The next example splits the data into one group for each day.

flights %>%
  group_by(year, month, day) %>%
  summarize(
    n = n(),
    mean_air_time = mean(air_time, na.rm = TRUE),
    median_air_time = median(air_time, na.rm = TRUE)
  ) %>%
  ungroup()

## # A tibble: 365 x 6
##    year month   day     n mean_air_time median_air_time
##   <int> <int> <int> <int>         <dbl>           <dbl>
## 1  2013     1     1   842          170.             149
## 2  2013     1     2   943          162.             148
## 3  2013     1     3   914          157.             148
## # … with 362 more rows

For quick exploration, the names of the new columns can be omitted:

flights %>%
  group_by(year, month, day) %>%
  summarize(
    n(),
    mean(air_time, na.rm = TRUE),
    median(air_time, na.rm = TRUE)
  ) %>%
  ungroup()

## # A tibble: 365 x 6
##    year month   day `n()` `mean(air_time, n… `median(air_time…
##   <int> <int> <int> <int>              <dbl>             <dbl>
## 1  2013     1     1   842               170.               149
## 2  2013     1     2   943               162.               148
## 3  2013     1     3   914               157.               148
## # … with 362 more rows

The n() function computes a simple count, and is one of the most frequently used summary functions.
The count() function provides a convenient alternative.

flights %>%
  count(year, month, day)

## # A tibble: 365 x 4
##    year month   day     n
##   <int> <int> <int> <int>
## 1  2013     1     1   842
## 2  2013     1     2   943
## 3  2013     1     3   914
## # … with 362 more rows
…
The result of ggplot() is first and foremost an object.
Only when R tries to display it on the console a method is triggered, which causes it to show the graph in the “Viewer”.
Therefore, we can use the group_by – summarize() – ungroup() pattern to produce one plot per group and store it in a new column:

plot_df <-
  flights %>%
  group_by(month) %>%
  summarize(
    plot = list(plot_fun(tibble(carrier)))
  ) %>%
  ungroup()

plot_df

## # A tibble: 12 x 2
##   month plot  
##   <int> <list>
## 1     1 <gg>  
## 2     2 <gg>  
## 3     3 <gg>  
## # … with 9 more rows
…
