2 Visualization | Visualization, transformation and reporting with the tidyverse
…
## Error in FUN(X[[i]], ...) : object 'blue' not found

R treats objects without quotation marks in a special way, expecting them to be variables.
Since blue is not a variable of mpg, this did not work.
Use quotation marks if you mean a string, as opposed to a variable or object name.

mpg

## # A tibble: 234 x 11
##   manufacturer model displ  year   cyl trans drv     cty   hwy
##   <chr>        <chr> <dbl> <int> <int> <chr> <chr> <int> <int>
## 1 audi         a4      1.8  1999     4 auto… f        18    29
## 2 audi         a4      1.8  1999     4 manu… f        21    29
## 3 audi         a4      2    2008     4 manu… f        20    31
## # … with 231 more rows, and 2 more variables: fl <chr>,
## #   class <chr>
…
