Trend data
…
all_stats_new_cases_long

## # A tibble: 6,477 x 5
##    five_regions           country  year disease new_cases_number
##  * <chr>                  <chr>   <dbl> <fctr>             <dbl>
##  1 Africa and Middle East Algeria  2000 HIV               595   
##  2 Africa and Middle East Algeria  2000 TB              23000   
##  3 Africa and Middle East Algeria  2000 Malaria            41.2 
##  4 Africa and Middle East Algeria  2001 HIV               650   
##  5 Africa and Middle East Algeria  2001 TB              23000   
##  6 Africa and Middle East Algeria  2001 Malaria             9.41
##  7 Africa and Middle East Algeria  2002 HIV               705   
##  8 Africa and Middle East Algeria  2002 TB              24000   
##  9 Africa and Middle East Algeria  2002 Malaria             9.41
## 10 Africa and Middle East Algeria  2003 HIV               762   
## # ... with 6,467 more rows
…
all_stats_inc_mort_long

## # A tibble: 10,162 x 7
##    five_regions           country  year disease indicator nominat… denomi…
##    <chr>                  <chr>   <dbl> <fctr>  <chr>        <dbl>   <dbl>
##  1 Africa and Middle East Algeria  2000 HIV     mortality   1.85e⁴  3.12e⁷
##  2 Africa and Middle East Algeria  2000 TB      incidence   2.30e⁹  3.12e⁷
##  3 Africa and Middle East Algeria  2000 TB      mortality   2.50e⁸  3.12e⁷
##  4 Africa and Middle East Algeria  2000 Malaria incidence   4.12e⁴  1.09e⁶
##  5 Africa and Middle East Algeria  2000 Malaria mortality   2.07e³  1.09e⁶
##  6 Africa and Middle East Algeria  2001 HIV     incidence   6.50e⁴  3.12e⁹
##  7 Africa and Middle East Algeria  2001 HIV     mortality   2.06e⁴  3.16e⁷
##  8 Africa and Middle East Algeria  2001 TB      incidence   2.30e⁹  3.16e⁷
##  9 Africa and Middle East Algeria  2001 TB      mortality   2.50e⁸  3.16e⁷
## 10 Africa and Middle East Algeria  2001 Malaria incidence   9.41e³  1.11e⁶
## # ... with 10,152 more rows
…
