The pipe
…
  filter(late_flights, carrier == "UA")
early_late_ua_flights <-
  filter(late_ua_flights, dep_time >= 600)
early_late_late_ua_flights <-
  filter(early_late_ua_flights, arr_delay > 120)
early_late_late_ua_flights_not_honolulu <-
  filter(early_late_late_ua_flights, dest != "HNL")
early_late_late_ua_flights_not_honolulu_sorted <-
  arrange(
    early_late_late_ua_flights_not_honolulu,
    distance
  )
View(early_late_late_ua_flights_not_honolulu_sorted)

## # A tibble: 330 x 19
##     year month   day dep_time sched_dep_time dep_delay arr_time
##    <int> <int> <int>    <int>          <int>     <dbl>    <int>
##  1  2013    10     7     2108           1710       238     2217
##  2  2013    12    17     2122           1714       248     2248
##  3  2013     3     7     2046           1905       101     2231
##  4  2013     3     7     2124           1550       334     2304
##  5  2013     3    19     2251           2030       141     2355
##  6  2013     5     3     2058           1555       303     2203
##  7  2013     5    19     2201           2000       121     2337
##  8  2013     5    21     2103           1730       213     2231
##  9  2013     6    10     2056           1800       176     2205
## 10  2013     6    24     2049           1800       169     2219
## # … with 320 more rows, and 12 more variables: sched_arr_time <int>,
## #   arr_delay <dbl>, carrier <chr>, flight <int>, tailnum <chr>,
## #   origin <chr>, dest <chr>, air_time <dbl>, distance <dbl>, hour <dbl>,
## #   minute <dbl>, time_hour <dttm>
…
## # A tibble: 0 x 19
## # … with 19 variables: year <int>, month <int>, day <int>, dep_time <int>,
## #   sched_dep_time <int>, dep_delay <dbl>, arr_time <int>,
## #   sched_arr_time <int>, arr_delay <dbl>, carrier <chr>, flight <int>,
## #   tailnum <chr>, origin <chr>, dest <chr>, air_time <dbl>,
## #   distance <dbl>, hour <dbl>, minute <dbl>, time_hour <dttm>

The original data is never updated! You still need to assign the result of a pipe to a variable:

flights

## # A tibble: 336,776 x 19
##     year month   day dep_time sched_dep_time dep_delay arr_time
##    <int> <int> <int>    <int>          <int>     <dbl>    <int>
##  1  2013     1     1      517            515         2      830
##  2  2013     1     1      533            529         4      850
##  3  2013     1     1      542            540         2      923
##  4  2013     1     1      544            545        -1     1004
##  5  2013     1     1      554            600        -6      812
##  6  2013     1     1      554            558        -4      740
##  7  2013     1     1      555            600        -5      913
##  8  2013     1     1      557            600        -3      709
##  9  2013     1     1      557            600        -3      838
## 10  2013     1     1      558            600        -2      753
## # … with 336,766 more rows, and 12 more variables: sched_arr_time <int>,
## #   arr_delay <dbl>, carrier <chr>, flight <int>, tailnum <chr>,
## #   origin <chr>, dest <chr>, air_time <dbl>, distance <dbl>, hour <dbl>,
## #   minute <dbl>, time_hour <dttm>
…
