Summarize
…
► Solution:

flights %>% 
  filter(is.na(dep_time)) %>%
  group_by(tailnum) %>% 
  summarize(not_departed = n()) %>% 
  ungroup() %>% 
  filter(!is.na(tailnum)) %>%
  arrange(desc(not_departed))

## # A tibble: 1,449 x 2
##    tailnum not_departed
##    <chr>          <int>
##  1 N725MQ            29
##  2 N713MQ            28
##  3 N723MQ            27
##  4 N15574            26
##  5 N722MQ            26
##  6 N13949            24
##  7 N14573            24
##  8 N735MQ            24
##  9 N11535            23
## 10 N11565            23
## # … with 1,439 more rows
…
Hint: Use the idiom mean(___) to compute the share of rows where a predicate is true.

flights %>%
  group_by(carrier) %>%
  _____ %>% 
  ungroup()

► Solution:

flights %>% 
  group_by(tailnum) %>% 
  summarize(not_departed = sum(is.na(dep_time))) %>% 
  ungroup()

## # A tibble: 4,044 x 2
##    tailnum not_departed
##    <chr>          <int>
##  1 <NA>            2512
##  2 D942DN             0
##  3 N0EGMQ            17
##  4 N10156             7
##  5 N102UW             0
##  6 N103US             0
##  7 N104UW             0
##  8 N10575            17
##  9 N105UW             0
## 10 N107US             0
## # … with 4,034 more rows

An alternative, using filter() and count():

flights %>% 
  filter(is.na(dep_time)) %>%
  count(tailnum, sort = TRUE)

## # A tibble: 1,450 x 2
##    tailnum     n
##    <chr>   <int>
##  1 <NA>     2512
##  2 N725MQ     29
##  3 N713MQ     28
##  4 N723MQ     27
##  5 N15574     26
##  6 N722MQ     26
##  7 N13949     24
##  8 N14573     24
##  9 N735MQ     24
## 10 N11535     23
## # … with 1,440 more rows
…
