Separating and uniting
…
Counting relations

flights %>%
  unite(
    relation,
    origin, dest,
    sep = " -> "
  ) %>%
  count(relation)

## # A tibble: 224 x 2
##    relation       n
##    <chr>      <int>
##  1 EWR -> ALB   439
##  2 EWR -> ANC     8
##  3 EWR -> ATL  5022
##  4 EWR -> AUS   968
##  5 EWR -> AVL   265
##  6 EWR -> BDL   443
##  7 EWR -> BNA  2336
##  8 EWR -> BOS  5327
##  9 EWR -> BQN   297
## 10 EWR -> BTV   931
## # ... with 214 more rows
…
