Data visualisation, reporting, and processing with R
…
---

```r
anscombe %>%
  as_tibble() %>%
  rowid_to_column("obs") %>%
  gather(key, value, -obs)
```

```
## # A tibble: 88 x 3
##      obs key   value
##    <int> <chr> <dbl>
##  1     1 x1       10
##  2     2 x1        8
##  3     3 x1       13
##  4     4 x1        9
##  5     5 x1       11
##  6     6 x1       14
##  7     7 x1        6
##  8     8 x1        4
##  9     9 x1       12
## 10    10 x1        7
## # ... with 78 more rows
```

---

```r
anscombe %>%
  as_tibble() %>%
  rowid_to_column("obs") %>%
  gather(key, value, -obs) %>%
  separate(key, into = c("axis", "example"), sep = 1)
```

```
## # A tibble: 88 x 4
##      obs axis  example value
##    <int> <chr> <chr>   <dbl>
##  1     1 x     1          10
##  2     2 x     1           8
##  3     3 x     1          13
##  4     4 x     1           9
##  5     5 x     1          11
##  6     6 x     1          14
##  7     7 x     1           6
##  8     8 x     1           4
##  9     9 x     1          12
## 10    10 x     1           7
## # ... with 78 more rows
```

---

```r
anscombe %>%
  as_tibble() %>%
  rowid_to_column("obs") %>%
  gather(key, value, -obs) %>%
  separate(key, into = c("axis", "example"), sep = 1) %>%
  spread(axis, value)
```

```
## # A tibble: 44 x 4
##      obs example     x     y
##    <int> <chr>   <dbl> <dbl>
##  1     1 1          10  8.04
##  2     1 2          10  9.14
##  3     1 3          10  7.46
##  4     1 4           8  6.58
##  5     2 1           8  6.95
##  6     2 2           8  8.14
##  7     2 3           8  6.77
##  8     2 4           8  5.76
##  9     3 1          13  7.58
## 10     3 2          13  8.74
## # ... with 34 more rows
```
…
```r
tidy_anscombe <-
  anscombe %>%
  as_tibble() %>%
  rowid_to_column("obs") %>%
  gather(key, value, -obs) %>%
  separate(key, into = c("axis", "example"), sep = 1) %>%
  spread(axis, value)

tidy_anscombe
```

```
## # A tibble: 44 x 4
##      obs example     x     y
##    <int> <chr>   <dbl> <dbl>
##  1     1 1          10  8.04
##  2     1 2          10  9.14
##  3     1 3          10  7.46
##  4     1 4           8  6.58
##  5     2 1           8  6.95
##  6     2 2           8  8.14
##  7     2 3           8  6.77
##  8     2 4           8  5.76
##  9     3 1          13  7.58
## 10     3 2          13  8.74
## # ... with 34 more rows
```
…
