Data visualisation, reporting, and processing with R
…
???

Joins

r4ds, chapter 13

library(nycflights13)
flights %>%
  select(year, month, day, carrier) %>%
  left_join(airlines)

## Joining, by = "carrier"

## # A tibble: 336,776 x 5
##     year month   day carrier name                    
##    <int> <int> <int> <chr>   <chr>                   
##  1  2013     1     1 UA      United Air Lines Inc.   
##  2  2013     1     1 UA      United Air Lines Inc.   
##  3  2013     1     1 AA      American Airlines Inc.  
##  4  2013     1     1 B6      JetBlue Airways         
##  5  2013     1     1 DL      Delta Air Lines Inc.    
##  6  2013     1     1 UA      United Air Lines Inc.   
##  7  2013     1     1 B6      JetBlue Airways         
##  8  2013     1     1 EV      ExpressJet Airlines Inc.
##  9  2013     1     1 B6      JetBlue Airways         
## 10  2013     1     1 AA      American Airlines Inc.  
## # ... with 336,766 more rows
…
