Separating and uniting
…
Hours and minutes

## Use a numeric value for sep

flights %>%
  separate(dep_time, into = c("dep_hour", "dep_minute"), sep = -3, convert = TRUE) %>%
  separate(arr_time, into = c("arr_hour", "arr_minute"), sep = -3, convert = TRUE) %>% 
  select(starts_with("dep_"), starts_with("arr_"))

## # A tibble: 336,776 x 6
##    dep_hour dep_minute dep_delay arr_hour arr_minute arr_delay
##       <int>      <int>     <dbl>    <int>      <int>     <dbl>
##  1       NA        517         2       NA        830        11
##  2       NA        533         4       NA        850        20
##  3       NA        542         2       NA        923        33
##  4       NA        544        -1        1          4       -18
##  5       NA        554        -6       NA        812       -25
##  6       NA        554        -4       NA        740        12
##  7       NA        555        -5       NA        913        19
##  8       NA        557        -3       NA        709       -14
##  9       NA        557        -3       NA        838        -8
## 10       NA        558        -2       NA        753         8
## # ... with 336,766 more rows
…
