4 Import | Visualization, transformation and reporting with the tidyverse
…
## [conflicted] Removing existing preference

## [conflicted] Will prefer [34mdplyr::filter[39m over any other package

files <- dir(path = here("data"), pattern = "[.]xlsx$", full.names = TRUE)
files

## [1] "/home/travis/build/krlmlr/vistransrep/book/data/example6a.xlsx"
## [2] "/home/travis/build/krlmlr/vistransrep/book/data/example6b.xlsx"
## [3] "/home/travis/build/krlmlr/vistransrep/book/data/example6c.xlsx"

files %>%
  rio::import_list(setclass = class(tibble()), rbind = TRUE)

## # A tibble: 6 x 5
##      id  col1 col2  col3  `_file`                             
##   <dbl> <dbl> <chr> <chr> <chr>                               
## 1     1   1   a     X     /home/travis/build/krlmlr/vistransr…
## 2     1   2.5 b     Y     /home/travis/build/krlmlr/vistransr…
## 3     2   1.5 c     Z     /home/travis/build/krlmlr/vistransr…
## # … with 3 more rows
…
try(
  list_of_tables$example6b <-
    list_of_tables$example6b %>%
    mutate(...) %>%
    select(...)
)

## Error in function_list[[i]](value) : '...' used in an incorrect context

all_tables <- bind_rows(list_of_tables, .id = "path")
all_tables

## # A tibble: 6 x 5
##   path         id  col1 col2  col3 
##   <chr>     <dbl> <dbl> <chr> <chr>
## 1 example6a     1   1   a     X    
## 2 example6a     1   2.5 b     Y    
## 3 example6b     2   1.5 c     Z    
## # … with 3 more rows
…
## # A tibble: 3 x 3
##   path      `mean(col1)` `first(col2)`
##   <chr>            <dbl> <chr>        
## 1 example6a         1.75 a            
## 2 example6b         1.75 c            
## 3 example6c         3.75 g

files %>%
  map_dfr(~ readxl::read_excel(.))

## # A tibble: 6 x 4
##      id  col1 col2  col3 
##   <dbl> <dbl> <chr> <chr>
## 1     1   1   a     X    
## 2     1   2.5 b     Y    
## 3     2   1.5 c     Z    
## # … with 3 more rows
