3 Transformation | Visualization, transformation and reporting with the tidyverse
…
?flights

?flights

The function dplyr::filter() helps you to reduce your dataset to the observations (rows) of interest.
The filter condition can use any of the dataset’s variables and needs to be a logical expression.

flights %>%
  filter(dep_time < 600)

## # A tibble: 8,730 x 19
##    year month   day dep_time sched_dep_time dep_delay arr_time
##   <int> <int> <int>    <int>          <int>     <dbl>    <int>
## 1  2013     1     1      517            515         2      830
## 2  2013     1     1      533            529         4      850
## 3  2013     1     1      542            540         2      923
## # … with 8,727 more rows, and 12 more variables:
## #   sched_arr_time <int>, arr_delay <dbl>, carrier <chr>,
## #   flight <int>, tailnum <chr>, origin <chr>, dest <chr>,
## #   air_time <dbl>, distance <dbl>, hour <dbl>, minute <dbl>,
## #   time_hour <dttm>

If you use one or more variables of the dataset in the filter condition, a vectorized evaluation of the condition is taking place.
Generally you can provide any logical vector with a length equal to the number of rows (or alternatively equal to 1, if you want to keep/drop all rows).

flights %>%
  filter(is.na(dep_time))

## # A tibble: 8,255 x 19
##    year month   day dep_time sched_dep_time dep_delay arr_time
##   <int> <int> <int>    <int>          <int>     <dbl>    <int>
## 1  2013     1     1       NA           1630        NA       NA
## 2  2013     1     1       NA           1935        NA       NA
## 3  2013     1     1       NA           1500        NA       NA
## # … with 8,252 more rows, and 12 more variables:
## #   sched_arr_time <int>, arr_delay <dbl>, carrier <chr>,
## #   flight <int>, tailnum <chr>, origin <chr>, dest <chr>,
## #   air_time <dbl>, distance <dbl>, hour <dbl>, minute <dbl>,
## #   time_hour <dttm>
…
3.4.1 Further advantages

When working on a code chunk consisting of subsequent transformations connected by pipes, it can be useful to end the pipeline with either I or view().

flights %>%
  filter(dep_time < 600) %>%
  filter(month >= 10) %>% I

## # A tibble: 1,894 x 19
##    year month   day dep_time sched_dep_time dep_delay arr_time
## * <int> <int> <int>    <int>          <int>     <dbl>    <int>
## 1  2013    10     1      447            500       -13      614
## 2  2013    10     1      522            517         5      735
## 3  2013    10     1      536            545        -9      809
## # … with 1,891 more rows, and 12 more variables:
## #   sched_arr_time <int>, arr_delay <dbl>, carrier <chr>,
## #   flight <int>, tailnum <chr>, origin <chr>, dest <chr>,
## #   air_time <dbl>, distance <dbl>, hour <dbl>, minute <dbl>,
## #   time_hour <dttm>
…
The negative values occur because not everything happens on the same day, implying that our method is still in need of some refinement.
Nevertheless, let’s continue.

A frequently used workflow is creating a helper variable at some point in the pipeline and then dropping it later on:

flights %>%
  filter(tailnum == "N14228") %>%
  select(year, month, day, dep_time, arr_time) %>%
  mutate(lag_arr_time = lag(arr_time)) %>%
  mutate(ground_time = dep_time - lag_arr_time) %>%
  select(-lag_arr_time)

## # A tibble: 111 x 6
##    year month   day dep_time arr_time ground_time
##   <int> <int> <int>    <int>    <int>       <int>
## 1  2013     1     1      517      830          NA
## 2  2013     1     8     1435     1717         605
## 3  2013     1     9      717      812       -1000
## # … with 108 more rows
…
flights %>%
  filter(tailnum == "N14228") %>%
  mutate(cum_air_time = cumsum(air_time)) %>%
  select(air_time, cum_air_time) %>%
  view()

Creating a “flag” variable with mutate() which shows if a flight was on time or not:

flights %>%
  filter(tailnum == "N14228") %>%
  mutate(delayed = if_else(arr_delay > 0, "delayed", "on time")) %>%
  select(arr_delay, delayed)

## # A tibble: 111 x 2
##   arr_delay delayed
##       <dbl> <chr>  
## 1        11 delayed
## 2       -29 on time
## 3        -3 on time
## # … with 108 more rows

A more straightforward way to get the same (or at least a very similar and probably easier to work with) result:

flights %>%
  filter(tailnum == "N14228") %>%
  mutate(delayed = arr_delay > 0) %>%
  select(arr_delay, delayed)

## # A tibble: 111 x 2
##   arr_delay delayed
##       <dbl> <lgl>  
## 1        11 TRUE   
## 2       -29 FALSE  
## 3        -3 FALSE  
## # … with 108 more rows

… easier to work with, because filter() can directly take logical arguments:

flights %>%
  filter(tailnum == "N14228") %>%
  mutate(delayed = arr_delay > 0) %>%
  select(arr_delay, delayed) %>%
  filter(delayed)

## # A tibble: 39 x 2
##   arr_delay delayed
##       <dbl> <lgl>  
## 1        11 TRUE   
## 2        39 TRUE   
## 3        54 TRUE   
## # … with 36 more rows

Negation for inverse filtering:

flights %>%
  filter(tailnum == "N14228") %>%
  mutate(delayed = arr_delay > 0) %>%
  select(arr_delay, delayed) %>%
  filter(!delayed)

## # A tibble: 72 x 2
##   arr_delay delayed
##       <dbl> <lgl>  
## 1       -29 FALSE  
## 2        -3 FALSE  
## 3       -20 FALSE  
## # … with 69 more rows
…
The next example splits the data into one group for each day.

flights %>%
  group_by(year, month, day) %>%
  summarize(
    n = n(),
    mean_air_time = mean(air_time, na.rm = TRUE),
    median_air_time = median(air_time, na.rm = TRUE)
  ) %>%
  ungroup()

## # A tibble: 365 x 6
##    year month   day     n mean_air_time median_air_time
##   <int> <int> <int> <int>         <dbl>           <dbl>
## 1  2013     1     1   842          170.             149
## 2  2013     1     2   943          162.             148
## 3  2013     1     3   914          157.             148
## # … with 362 more rows

For quick exploration, the names of the new columns can be omitted:

flights %>%
  group_by(year, month, day) %>%
  summarize(
    n(),
    mean(air_time, na.rm = TRUE),
    median(air_time, na.rm = TRUE)
  ) %>%
  ungroup()

## # A tibble: 365 x 6
##    year month   day `n()` `mean(air_time, n… `median(air_time…
##   <int> <int> <int> <int>              <dbl>             <dbl>
## 1  2013     1     1   842               170.               149
## 2  2013     1     2   943               162.               148
## 3  2013     1     3   914               157.               148
## # … with 362 more rows
…
The result of ggplot() is first and foremost an object.
Only when R tries to display it on the console a method is triggered, which causes it to show the graph in the “Viewer”.
Therefore, we can use the group_by – summarize() – ungroup() pattern to produce one plot per group and store it in a new column:

plot_df <-
  flights %>%
  group_by(month) %>%
  summarize(
    plot = list(plot_fun(tibble(carrier)))
  ) %>%
  ungroup()

plot_df

## # A tibble: 12 x 2
##   month plot  
##   <int> <list>
## 1     1 <gg>  
## 2     2 <gg>  
## 3     3 <gg>  
## # … with 9 more rows
…
