2 Visualization | Visualization, transformation and reporting with the tidyverse
…
R treats objects without quotation marks in a special way, expecting them to be variables.
Since blue is not a variable of mpg, this did not work.
The following should shed some light on the difference between objects with and without quotation marks.

mpg

## # A tibble: 234 x 11
##   manufacturer model displ  year   cyl trans      drv     cty   hwy fl    class 
##   <chr>        <chr> <dbl> <int> <int> <chr>      <chr> <int> <int> <chr> <chr> 
## 1 audi         a4      1.8  1999     4 auto(l5)   f        18    29 p     compa…
## 2 audi         a4      1.8  1999     4 manual(m5) f        21    29 p     compa…
## 3 audi         a4      2    2008     4 manual(m6) f        20    31 p     compa…
## # … with 231 more rows
…
