Spreading and gathering
…
table2 %>% 
  gather(type, count, -country, -year)

## # A tibble: 24 x 4
##    country      year type  count     
##    <chr>       <int> <chr> <chr>     
##  1 Afghanistan  1999 type  cases     
##  2 Afghanistan  1999 type  population
##  3 Afghanistan  2000 type  cases     
##  4 Afghanistan  2000 type  population
##  5 Brazil       1999 type  cases     
##  6 Brazil       1999 type  population
##  7 Brazil       2000 type  cases     
##  8 Brazil       2000 type  population
##  9 China        1999 type  cases     
## 10 China        1999 type  population
## # ... with 14 more rows
…
